{
  "main.css": "/static/css/main.1d8200fa.chunk.css",
  "main.js": "/static/js/main.95c8dfc9.chunk.js",
  "main.js.map": "/static/js/main.95c8dfc9.chunk.js.map",
  "runtime~main.js": "/static/js/runtime~main.c5541365.js",
  "runtime~main.js.map": "/static/js/runtime~main.c5541365.js.map",
  "static/css/2.5c0f058a.chunk.css": "/static/css/2.5c0f058a.chunk.css",
  "static/js/2.0c6c4feb.chunk.js": "/static/js/2.0c6c4feb.chunk.js",
  "static/js/2.0c6c4feb.chunk.js.map": "/static/js/2.0c6c4feb.chunk.js.map",
  "index.html": "/index.html",
  "precache-manifest.050a765ab11b92b50c9a4504266e0c79.js": "/precache-manifest.050a765ab11b92b50c9a4504266e0c79.js",
  "service-worker.js": "/service-worker.js",
  "static/css/2.5c0f058a.chunk.css.map": "/static/css/2.5c0f058a.chunk.css.map",
  "static/css/main.1d8200fa.chunk.css.map": "/static/css/main.1d8200fa.chunk.css.map"
}